accuracy	loss	
 1.0312e+01	 1.1507e+01	
 1.0312e+01	 1.1505e+01	
 9.6875e+00	 1.1492e+01	
 9.6875e+00	 1.1457e+01	
 1.1562e+01	 1.1390e+01	
 1.5313e+01	 1.1271e+01	
 1.8281e+01	 1.1133e+01	
 2.2031e+01	 1.0999e+01	
 2.3281e+01	 1.0853e+01	
 2.5625e+01	 1.0718e+01	
 2.6094e+01	 1.0615e+01	
 2.6562e+01	 1.0497e+01	
 2.7187e+01	 1.0398e+01	
 2.7500e+01	 1.0325e+01	
 2.6719e+01	 1.0276e+01	
 2.5625e+01	 1.0256e+01	
 2.5781e+01	 1.0208e+01	
 2.5938e+01	 1.0151e+01	
 2.6875e+01	 1.0090e+01	
 2.5625e+01	 1.0027e+01	
 2.5781e+01	 1.0006e+01	
 2.5938e+01	 9.9976e+00	
 2.6562e+01	 9.9414e+00	
 2.6562e+01	 9.9037e+00	
 2.6719e+01	 9.8615e+00	
 2.7031e+01	 9.8302e+00	
 2.7187e+01	 9.8169e+00	
 2.7344e+01	 9.7910e+00	
 2.7031e+01	 9.7361e+00	
 2.7656e+01	 9.6823e+00	
 2.7812e+01	 9.6507e+00	
 2.9219e+01	 9.6088e+00	
 2.9375e+01	 9.5885e+00	
 2.8438e+01	 9.5559e+00	
 2.8438e+01	 9.5316e+00	
 2.9219e+01	 9.4946e+00	
 2.9375e+01	 9.4271e+00	
 3.0156e+01	 9.4280e+00	
 3.0000e+01	 9.3867e+00	
 2.9219e+01	 9.3728e+00	
 2.9063e+01	 9.3820e+00	
 2.9688e+01	 9.4036e+00	
 3.0469e+01	 9.3227e+00	
 3.0156e+01	 9.2945e+00	
 3.0938e+01	 9.2873e+00	
 3.1406e+01	 9.2248e+00	
 3.1562e+01	 9.2145e+00	
 3.1719e+01	 9.1947e+00	
 3.1094e+01	 9.1978e+00	
 3.0938e+01	 9.1875e+00	
 3.2031e+01	 9.1756e+00	
 3.2188e+01	 9.1716e+00	
 3.2188e+01	 9.1775e+00	
 3.2031e+01	 9.1727e+00	
 3.2031e+01	 9.1691e+00	
 3.2188e+01	 9.1684e+00	
 3.2188e+01	 9.1588e+00	
 3.2344e+01	 9.1502e+00	
 3.2031e+01	 9.1552e+00	
 3.2031e+01	 9.1438e+00	
 3.2031e+01	 9.1470e+00	
 3.2188e+01	 9.1458e+00	
 3.2031e+01	 9.1427e+00	
 3.2188e+01	 9.1400e+00	
 3.2031e+01	 9.1386e+00	
 3.2344e+01	 9.1313e+00	
 3.2031e+01	 9.1292e+00	
 3.2031e+01	 9.1226e+00	
 3.2188e+01	 9.1249e+00	
 3.2344e+01	 9.1225e+00	
 3.2188e+01	 9.1217e+00	
 3.2344e+01	 9.1264e+00	
 3.1875e+01	 9.1296e+00	
 3.2344e+01	 9.1321e+00	
 3.2344e+01	 9.1287e+00	
 3.2031e+01	 9.1200e+00	
 3.2031e+01	 9.1121e+00	
 3.2031e+01	 9.1051e+00	
 3.1875e+01	 9.1028e+00	
 3.1875e+01	 9.1049e+00	
 3.1562e+01	 9.1025e+00	
 3.1875e+01	 9.0970e+00	
 3.1875e+01	 9.0900e+00	
 3.1875e+01	 9.0848e+00	
 3.2344e+01	 9.0874e+00	
 3.2969e+01	 9.0839e+00	
 3.2812e+01	 9.0859e+00	
 3.2500e+01	 9.0878e+00	
 3.2344e+01	 9.0864e+00	
 3.2500e+01	 9.0824e+00	
 3.2812e+01	 9.0772e+00	
 3.2500e+01	 9.0740e+00	
